\relax 
\providecommand\HyperFirstAtBeginDocument{\AtBeginDocument}
\HyperFirstAtBeginDocument{\ifx\hyper@anchor\@undefined
\global\let\oldcontentsline\contentsline
\gdef\contentsline#1#2#3#4{\oldcontentsline{#1}{#2}{#3}}
\global\let\oldnewlabel\newlabel
\gdef\newlabel#1#2{\newlabelxx{#1}#2}
\gdef\newlabelxx#1#2#3#4#5#6{\oldnewlabel{#1}{{#2}{#3}}}
\AtEndDocument{\ifx\hyper@anchor\@undefined
\let\contentsline\oldcontentsline
\let\newlabel\oldnewlabel
\fi}
\fi}
\global\let\hyper@last\relax 
\gdef\HyperFirstAtBeginDocument#1{#1}
\providecommand\HyField@AuxAddToFields[1]{}
\@writefile{toc}{\contentsline {chapter}{\numberline {1}Introduction}{1}{chapter.1}}
\@writefile{lof}{\addvspace {10\p@ }}
\@writefile{lot}{\addvspace {10\p@ }}
\@writefile{toc}{\contentsline {section}{\numberline {1.1}Aims and Motivation}{1}{section.1.1}}
\citation{class}
\citation{main}
\citation{link3}
\citation{anew}
\@writefile{toc}{\contentsline {section}{\numberline {1.2}Area of Computer Science}{2}{section.1.2}}
\newlabel{area}{{1.2}{2}{Area of Computer Science\relax }{section.1.2}{}}
\@writefile{toc}{\contentsline {subsection}{\numberline {1.2.1}The Classification Problem}{2}{subsection.1.2.1}}
\newlabel{classification}{{1.2.1}{2}{The Classification Problem\relax }{subsection.1.2.1}{}}
\@writefile{toc}{\contentsline {subsection}{\numberline {1.2.2}Sentiment Polarity}{2}{subsection.1.2.2}}
\newlabel{sentiment_polarity}{{1.2.2}{2}{Sentiment Polarity\relax }{subsection.1.2.2}{}}
\@writefile{toc}{\contentsline {section}{\numberline {1.3}Previous Related Work}{3}{section.1.3}}
\citation{sentiwordnet}
\citation{link4}
\@writefile{toc}{\contentsline {chapter}{\numberline {2}Preparation}{4}{chapter.2}}
\@writefile{lof}{\addvspace {10\p@ }}
\@writefile{lot}{\addvspace {10\p@ }}
\@writefile{toc}{\contentsline {section}{\numberline {2.1}The Unsupervised Approach}{4}{section.2.1}}
\newlabel{unsupervised_preparation}{{2.1}{4}{The Unsupervised Approach\relax }{section.2.1}{}}
\@writefile{toc}{\contentsline {subsection}{\numberline {2.1.1}The Aho-Corasick Algorithm}{4}{subsection.2.1.1}}
\@writefile{toc}{\contentsline {subsubsection}{Overview of the Algorithm}{5}{section*.8}}
\newlabel{aho_corasick}{{2.1.1}{5}{Overview of the Algorithm\relax }{section*.8}{}}
\@writefile{toc}{\contentsline {subsubsection}{Building the Automaton}{5}{section*.9}}
\citation{link4}
\@writefile{toc}{\contentsline {subsubsection}{Pattern Matching}{7}{section*.10}}
\@writefile{toc}{\contentsline {section}{\numberline {2.2}The Supervised Approach}{7}{section.2.2}}
\newlabel{supervised_preparation}{{2.2}{7}{The Supervised Approach\relax }{section.2.2}{}}
\@writefile{toc}{\contentsline {subsection}{\numberline {2.2.1}Support Vector Machines}{7}{subsection.2.2.1}}
\citation{svm}
\@writefile{toc}{\contentsline {subsubsection}{Overview}{8}{section*.11}}
\@writefile{toc}{\contentsline {subsubsection}{Theory}{8}{section*.12}}
\citation{link1}
\@writefile{toc}{\contentsline {section}{\numberline {2.3}Data Source: \emph  {Twitter} vs. \emph  {Google News}}{9}{section.2.3}}
\newlabel{data_source}{{2.3}{9}{Data Source: \emph {Twitter} vs. \emph {Google News}\relax }{section.2.3}{}}
\@writefile{toc}{\contentsline {subsubsection}{The Microblogging Paradigm}{9}{section*.13}}
\newlabel{microblogging}{{2.3}{9}{The Microblogging Paradigm\relax }{section*.13}{}}
\@writefile{toc}{\contentsline {subsubsection}{Twitter}{9}{section*.14}}
\@writefile{toc}{\contentsline {subsubsection}{Google News}{10}{section*.15}}
\@writefile{toc}{\contentsline {section}{\numberline {2.4}Approaches to Data Collection}{10}{section.2.4}}
\newlabel{data_collection_preparation}{{2.4}{10}{Approaches to Data Collection\relax }{section.2.4}{}}
\@writefile{lof}{\contentsline {figure}{\numberline {2.1}{\ignorespaces Identification of article body\relax }}{11}{figure.caption.16}}
\providecommand*\caption@xref[2]{\@setref\relax\@undefined{#1}}
\newlabel{article}{{2.1}{11}{Identification of article body\relax \relax }{figure.caption.16}{}}
\@writefile{toc}{\contentsline {subsection}{\numberline {2.4.1}Overview of the \emph  {Twitter Search API}}{11}{subsection.2.4.1}}
\newlabel{search_api}{{2.4.1}{11}{Overview of the \emph {Twitter Search API}\relax }{subsection.2.4.1}{}}
\@writefile{toc}{\contentsline {subsubsection}{Advantages}{11}{section*.17}}
\@writefile{toc}{\contentsline {subsubsection}{Disadvantages}{12}{section*.18}}
\@writefile{lof}{\contentsline {figure}{\numberline {2.2}{\ignorespaces American states grouped in a cluster by the \emph  {Twitter Search API}\relax }}{12}{figure.caption.19}}
\newlabel{cluster}{{2.2}{12}{American states grouped in a cluster by the \emph {Twitter Search API}\relax \relax }{figure.caption.19}{}}
\@writefile{toc}{\contentsline {subsubsection}{Conclusion}{13}{section*.20}}
\@writefile{toc}{\contentsline {subsection}{\numberline {2.4.2}Overview of the \emph  {Twitter Streaming API}}{13}{subsection.2.4.2}}
\newlabel{streaming_api}{{2.4.2}{13}{Overview of the \emph {Twitter Streaming API}\relax }{subsection.2.4.2}{}}
\@writefile{toc}{\contentsline {subsubsection}{Advantages}{13}{section*.21}}
\@writefile{toc}{\contentsline {subsubsection}{Disadvantages}{14}{section*.22}}
\@writefile{toc}{\contentsline {subsubsection}{Conclusion}{14}{section*.23}}
\@writefile{toc}{\contentsline {chapter}{\numberline {3}Implementation}{15}{chapter.3}}
\@writefile{lof}{\addvspace {10\p@ }}
\@writefile{lot}{\addvspace {10\p@ }}
\newlabel{implementation}{{3}{15}{Implementation\relax }{chapter.3}{}}
\@writefile{toc}{\contentsline {section}{\numberline {3.1}Data Collection}{15}{section.3.1}}
\newlabel{data_collection}{{3.1}{15}{Data Collection\relax }{section.3.1}{}}
\@writefile{toc}{\contentsline {subsection}{\numberline {3.1.1}The \emph  {Twitter 4J Library}}{15}{subsection.3.1.1}}
\newlabel{twitter4j}{{3.1.1}{15}{The \emph {Twitter 4J Library}\relax }{subsection.3.1.1}{}}
\@writefile{toc}{\contentsline {subsection}{\numberline {3.1.2}Data Collection Using the \emph  {Twitter Search API}}{16}{subsection.3.1.2}}
\newlabel{searchAPI}{{3.1.2}{16}{Data Collection Using the \emph {Twitter Search API}\relax }{subsection.3.1.2}{}}
\@writefile{toc}{\contentsline {subsubsection}{General framework}{16}{section*.24}}
\@writefile{lof}{\contentsline {figure}{\numberline {3.1}{\ignorespaces Workflow for the \emph  {Twitter Search API}.\relax }}{16}{figure.caption.25}}
\@writefile{toc}{\contentsline {subsubsection}{Collecting Data for Mapping}{16}{section*.26}}
\@writefile{lof}{\contentsline {figure}{\numberline {3.2}{\ignorespaces The \emph  {Iterator Design Pattern} used for query generation.\relax }}{17}{figure.caption.27}}
\newlabel{query}{{3.2}{17}{The \emph {Iterator Design Pattern} used for query generation.\relax \relax }{figure.caption.27}{}}
\@writefile{toc}{\contentsline {subsubsection}{Collecting small sets of data}{17}{section*.29}}
\@writefile{toc}{\contentsline {subsection}{\numberline {3.1.3}Data Collection Using the \emph  {Twitter Streaming API}}{17}{subsection.3.1.3}}
\@writefile{lof}{\contentsline {figure}{\numberline {3.3}{\ignorespaces Queries through the \emph  {Twitter Search API}.\relax }}{18}{figure.caption.28}}
\newlabel{query2}{{3.3}{18}{Queries through the \emph {Twitter Search API}.\relax \relax }{figure.caption.28}{}}
\@writefile{toc}{\contentsline {subsubsection}{General Framework}{18}{section*.30}}
\@writefile{lof}{\contentsline {figure}{\numberline {3.4}{\ignorespaces Workflow of the \emph  {Twitter Streaming API}\relax }}{18}{figure.caption.31}}
\newlabel{streaming_workflow}{{3.4}{18}{Workflow of the \emph {Twitter Streaming API}\relax \relax }{figure.caption.31}{}}
\@writefile{toc}{\contentsline {subsubsection}{Implementation Details}{18}{section*.32}}
\@writefile{toc}{\contentsline {subsection}{\numberline {3.1.4}The Data Corpus}{19}{subsection.3.1.4}}
\newlabel{data_corpus}{{3.1.4}{19}{The Data Corpus\relax }{subsection.3.1.4}{}}
\@writefile{lof}{\contentsline {figure}{\numberline {3.5}{\ignorespaces Details about the Data Corpus.\relax }}{19}{figure.caption.33}}
\@writefile{toc}{\contentsline {subsection}{\numberline {3.1.5}Database Schema}{20}{subsection.3.1.5}}
\newlabel{database}{{3.1.5}{20}{Database Schema\relax }{subsection.3.1.5}{}}
\@writefile{toc}{\contentsline {section}{\numberline {3.2}Data Annotation}{21}{section.3.2}}
\newlabel{data_annotation}{{3.2}{21}{Data Annotation\relax }{section.3.2}{}}
\@writefile{toc}{\contentsline {subsection}{\numberline {3.2.1}Noisy Labels}{21}{subsection.3.2.1}}
\newlabel{noisy_labels}{{3.2.1}{21}{Noisy Labels\relax }{subsection.3.2.1}{}}
\@writefile{toc}{\contentsline {subsubsection}{Emoticon queries}{21}{section*.34}}
\@writefile{toc}{\contentsline {subsubsection}{User timelines}{21}{section*.35}}
\citation{annotations}
\@writefile{toc}{\contentsline {subsection}{\numberline {3.2.2}Manual Labels}{22}{subsection.3.2.2}}
\newlabel{manual_labels}{{3.2.2}{22}{Manual Labels\relax }{subsection.3.2.2}{}}
\@writefile{toc}{\contentsline {subsubsection}{Noise Elimination}{22}{section*.36}}
\@writefile{toc}{\contentsline {subsubsection}{Graphical Interface for Manual Annotation}{22}{section*.37}}
\@writefile{lof}{\contentsline {figure}{\numberline {3.6}{\ignorespaces Graphical interface for manual annotation\relax }}{23}{figure.caption.38}}
\newlabel{annotation}{{3.6}{23}{Graphical interface for manual annotation\relax \relax }{figure.caption.38}{}}
\@writefile{toc}{\contentsline {subsubsection}{The Manually-Annotated Subcorpus}{24}{section*.39}}
\@writefile{toc}{\contentsline {subsubsection}{Review of the Data Corpus}{24}{section*.40}}
\citation{link3}
\citation{indiansentiwordnet}
\@writefile{lof}{\contentsline {figure}{\numberline {3.7}{\ignorespaces Review of the Data Corpus\relax }}{25}{figure.caption.41}}
\newlabel{data_corp}{{3.7}{25}{Review of the Data Corpus\relax \relax }{figure.caption.41}{}}
\@writefile{toc}{\contentsline {section}{\numberline {3.3}Data Preprocessing}{25}{section.3.3}}
\newlabel{data_preprocessing}{{3.3}{25}{Data Preprocessing\relax }{section.3.3}{}}
\@writefile{toc}{\contentsline {subsection}{\numberline {3.3.1}Preprocessing Operations}{25}{subsection.3.3.1}}
\newlabel{operations}{{3.3.1}{25}{Preprocessing Operations\relax }{subsection.3.3.1}{}}
\citation{link3}
\@writefile{toc}{\contentsline {subsection}{\numberline {3.3.2}Code Overview}{27}{subsection.3.3.2}}
\newlabel{preprocessing_code_overview}{{3.3.2}{27}{Code Overview\relax }{subsection.3.3.2}{}}
\@writefile{lof}{\contentsline {figure}{\numberline {3.8}{\ignorespaces Data Preprocessing\relax }}{27}{figure.caption.42}}
\newlabel{preprocess}{{3.8}{27}{Data Preprocessing\relax \relax }{figure.caption.42}{}}
\citation{nrc1}
\@writefile{toc}{\contentsline {section}{\numberline {3.4}Unsupervised Sentiment Analysis}{28}{section.3.4}}
\@writefile{toc}{\contentsline {subsection}{\numberline {3.4.1}The lexicon-based technique}{28}{subsection.3.4.1}}
\newlabel{lexicons}{{3.4.1}{28}{The lexicon-based technique\relax }{subsection.3.4.1}{}}
\citation{sentiwordnet}
\citation{indiansentiwordnet}
\citation{anew}
\citation{anewuse}
\@writefile{toc}{\contentsline {subsection}{\numberline {3.4.2}Linguistic Analysis}{30}{subsection.3.4.2}}
\citation{twitter_corpus}
\citation{main}
\citation{link5}
\@writefile{toc}{\contentsline {section}{\numberline {3.5}Supervised Sentiment Analysis}{32}{section.3.5}}
\newlabel{supervised}{{3.5}{32}{Supervised Sentiment Analysis\relax }{section.3.5}{}}
\@writefile{toc}{\contentsline {subsubsection}{Features}{32}{section*.43}}
\@writefile{toc}{\contentsline {section}{\numberline {3.6}Mapping Sentiment}{33}{section.3.6}}
\newlabel{mapping}{{3.6}{33}{Mapping Sentiment\relax }{section.3.6}{}}
\@writefile{toc}{\contentsline {chapter}{\numberline {4}Textual Contents Of The Website}{34}{chapter.4}}
\@writefile{lof}{\addvspace {10\p@ }}
\@writefile{lot}{\addvspace {10\p@ }}
\newlabel{App:AppendixA}{{4}{34}{Textual Contents Of The Website\relax }{chapter.4}{}}
\@writefile{toc}{\contentsline {section}{\numberline {4.1}Introduction}{34}{section.4.1}}
\@writefile{toc}{\contentsline {section}{\numberline {4.2}Guidelines}{35}{section.4.2}}
\bibstyle{plain}
\bibdata{bibliography}
\bibcite{link5}{1}
\bibcite{link3}{2}
\bibcite{anew}{3}
\bibcite{annotations}{4}
\bibcite{anewuse}{5}
\bibcite{svm}{6}
\bibcite{indiansentiwordnet}{7}
\bibcite{link1}{8}
\bibcite{class}{9}
\bibcite{nrc1}{10}
\bibcite{sentiwordnet}{11}
\bibcite{twitter_corpus}{12}
\bibcite{main}{13}
\bibcite{link4}{14}
