Afghanistanxxx285255437668990976
Albaniaxxx285383028044337152
Algeriaxxx285401178148327424
American Samoaxxx284820638714183680
Andorraxxx285383028044337152
Anguillaxxx285159221723545600
Antigua and Barbudaxxx285159221723545600
Argentinaxxx285384065417355267
Armeniaxxx285242899698941952
Arubaxxx285409293149274113
Australiaxxx285393387648086016
Austriaxxx285412988570181632
Azerbaijanxxx285242899698941952
Bahamasxxx285412540115214336
Bahrainxxx285404685853151232
Bangladeshxxx285090132011397120
Barbadosxxx285159221723545600
Belarusxxx285375610027655168
Belgiumxxx285412988570181632
Belizexxx285409293149274113
Beninxxx285403286536876032
Bermudaxxx284084377451913216
Bhutanxxx285090132011397120
Boliviaxxx285392279525539841
Bosnia and Herzegovinaxxx285383028044337152
Botswanaxxx284981312048218112
Bouvet Islandxxx285413541643689985
Brazilxxx285392279525539841
Brunei Darussalamxxx285305590694170624
Bulgariaxxx285410247537995777
Burkina Fasoxxx285227128436445184
Burundixxx285366765255548928
Cambodiaxxx285371486280249344
Cameroonxxx285403286536876032
Canadaxxx283033158834868224
Cayman Islandsxxx285409293149274113
Central African Republicxxx285403286536876032
Chadxxx285284812489629696
Chilexxx285404642861531137
Chinaxxx285049693573099521
Christmas Islandxxx285382738767392768
Colombiaxxx285410480116346880
Comorosxxx284981312048218112
Cook Islandsxxx284820638714183680
Costa Ricaxxx285410480116346880
Croatiaxxx285383028044337152
Cyprusxxx285410247537995777
Czech Republicxxx285412988570181632
Denmarkxxx285412988570181632
Djiboutixxx285380539920314369
Dominicaxxx285159221723545600
Dominican Republicxxx285409293149274113
East Timorxxx285398640988672000
Ecuadorxxx285268147790041089
Egyptxxx285404490859945986
El Salvadorxxx285409293149274113
Equatorial Guineaxxx285403286536876032
Eritreaxxx285380539920314369
Estoniaxxx285407093958258688
Ethiopiaxxx285372650191192064
Falkland Islands (Malvinas)xxx282892491039055872
Faroe Islandsxxx285410593731645440
Finlandxxx285407093958258688
Francexxx285412988570181632
French Guianaxxx285238279253671936
French Southern Territoriesxxx285126308105687040
Gambiaxxx285227128436445184
Georgiaxxx285410247537995777
Germanyxxx285412988570181632
Ghanaxxx284882818172067840
Gibraltarxxx285403876784488448
Greecexxx285410247537995777
Grenadaxxx285159221723545600
Guadeloupexxx285159221723545600
Guamxxx285247240962985984
Guatemalaxxx285275663198453761
Guineaxxx284882818172067840
Guinea-Bissauxxx285227128436445184
Guyanaxxx285238279253671936
Haitixxx285409293149274113
Hondurasxxx285409293149274113
Hong Kongxxx285412401443119105
Hungaryxxx285412988570181632
Icelandxxx285410593731645440
Indiaxxx285404418726309888
Indonesiaxxx285398640988672000
Iraqxxx285404490859945986
Irelandxxx285413385405870080
Israelxxx285404490859945986
Italyxxx285413945563545600
Jamaicaxxx285409293149274113
Jordanxxx285404490859945986
Kazakhstanxxx283508666580230144
Kenyaxxx285366765255548928
Kuwaitxxx285404685853151232
Kyrgyzstanxxx285255437668990976
Lao People''s Democratic Republicxxx285371486280249344
Latviaxxx285407093958258688
Lebanonxxx285410247537995777
Lesothoxxx285409924777918464
Liberiaxxx284882818172067840
Libyaxxx285401178148327424
Liechtensteinxxx285412988570181632
Lithuaniaxxx285375610027655168
Luxembourgxxx285412988570181632
Macauxxx285413987871514625
Macedoniaxxx285413945563545600
Madagascarxxx285251634097967104
Malawixxx284981312048218112
Malaysiaxxx285413541643689985
Maldivesxxx285356151195975680
Malixxx285227128436445184
Maltaxxx285413945563545600
Martiniquexxx285159221723545600
Mauritaniaxxx285227128436445184
Mauritiusxxx285251634097967104
Mayottexxx285251634097967104
Mexicoxxx285413375092080641
Micronesiaxxx284983150952718336
Moldovaxxx285375610027655168
Monacoxxx285413998529236992
Mongoliaxxx285412514781601793
Montserratxxx285159221723545600
Moroccoxxx285379123034075136
Mozambiquexxx284981312048218112
Namibiaxxx284907222054612993
Nauruxxx285306972637642752
Nepalxxx285390038013984769
Netherlandsxxx285412988570181632
Netherlands Antillesxxx285159221723545600
New Caledoniaxxx285234071653728256
Nicaraguaxxx285409293149274113
Nigerxxx285284812489629696
Nigeriaxxx285403286536876032
Niuexxx284820638714183680
Northern Mariana Islandsxxx285247240962985984
Norwayxxx285396813312299010
Omanxxx284381638970982400
Pakistanxxx285390038013984769
Palauxxx285305590694170624
Palestinian Territoryxxx285404490859945986
Panamaxxx285410480116346880
Papua New Guineaxxx285361079494774784
Paraguayxxx285410080399175681
Peruxxx285268147790041089
Philippinesxxx285413987871514625
Polandxxx285412988570181632
Portugalxxx285403876784488448
Puerto Ricoxxx285159221723545600
Qatarxxx285404685853151232
Reunionxxx285251634097967104
Romaniaxxx285375610027655168
Rwandaxxx285366765255548928
Saint Kitts and Nevisxxx285159221723545600
Saint Luciaxxx285159221723545600
Saint Vincent and the Grenadinesxxx285159221723545600
Samoaxxx284820638714183680
San Marinoxxx285413945563545600
Sao Tome and Principexxx285403286536876032
Saudi Arabiaxxx285404685853151232
Senegalxxx285227128436445184
Serbia and Montenegroxxx285413945563545600
Seychellesxxx284923904684863488
Sierra Leonexxx284882818172067840
Singaporexxx285413541643689985
Slovakiaxxx285412988570181632
Sloveniaxxx285412988570181632
Solomon Islandsxxx285306972637642752
Somaliaxxx285084161876828160
South Africaxxx285107983136985088
South Koreaxxx285383858373935104
Spainxxx285403876784488448
Sri Lankaxxx285356151195975680
St. Pierre and Miquelonxxx285253968223932416
Surinamexxx285238279253671936
Svalbard and Jan Mayen Islandsxxx284330936018014208
Swazilandxxx285409924777918464
Swedenxxx285396813312299010
Switzerlandxxx285412988570181632
Taiwanxxx285320423011409920
Tajikistanxxx285255437668990976
Tanzaniaxxx285366765255548928
Thailandxxx285371486280249344
Togoxxx285403286536876032
Tongaxxx284820638714183680
Trinidad and Tobagoxxx285238279253671936
Tunisiaxxx285413945563545600
Turkeyxxx285410247537995777
Turkmenistanxxx285242899698941952
Turks and Caicos Islandsxxx285409293149274113
Tuvaluxxx285306972637642752
Ugandaxxx285372650191192064
Ukrainexxx285375610027655168
United Arab Emiratesxxx285404685853151232
United Kingdomxxx285414217929064449
United Statesxxx285413416900915200
United States Minor Outlying Islandsxxx285284812489629696
Uruguayxxx285410080399175681
Uzbekistanxxx285242899698941952
Vanuatuxxx285234071653728256
Vaticanxxx285413945563545600
Venezuelaxxx285238279253671936
Viet Namxxx285371486280249344
Virgin Islands (British)xxx285159221723545600
Virgin Islands (U.S.)xxx285159221723545600
Wallis and Futuna Islandsxxx284820638714183680
Western Saharaxxx285379123034075136
Yemenxxx284381638970982400
Zambiaxxx284981312048218112
Zimbabwexxx284981312048218112
